%YAML 1.1
%TAG !u! tag:unity3d.com,2011:
--- !u!181963792 &2655988077585873504
Preset:
  m_ObjectHideFlags: 0
  m_CorrespondingSourceObject: {fileID: 0}
  m_PrefabInstance: {fileID: 0}
  m_PrefabAsset: {fileID: 0}
  m_Name: MusicPreset
  m_TargetType:
    m_NativeTypeID: 1020
    m_ManagedTypePPtr: {fileID: 0}
    m_ManagedTypeFallback: 
  m_Properties:
  - target: {fileID: 0}
    propertyPath: m_ExternalObjects.Array.size
    value: 0
    objectReference: {fileID: 0}
  - target: {fileID: 0}
    propertyPath: m_DefaultSettings.loadType
    value: 0
    objectReference: {fileID: 0}
  - target: {fileID: 0}
    propertyPath: m_DefaultSettings.sampleRateSetting
    value: 0
    objectReference: {fileID: 0}
  - target: {fileID: 0}
    propertyPath: m_DefaultSettings.sampleRateOverride
    value: 0
    objectReference: {fileID: 0}
  - target: {fileID: 0}
    propertyPath: m_DefaultSettings.compressionFormat
    value: 1
    objectReference: {fileID: 0}
  - target: {fileID: 0}
    propertyPath: m_DefaultSettings.quality
    value: 0
    objectReference: {fileID: 0}
  - target: {fileID: 0}
    propertyPath: m_DefaultSettings.conversionMode
    value: 0
    objectReference: {fileID: 0}
  - target: {fileID: 0}
    propertyPath: m_DefaultSettings.preloadAudioData
    value: 1
    objectReference: {fileID: 0}
  - target: {fileID: 0}
    propertyPath: m_PlatformSettingOverrides.Array.size
    value: 1
    objectReference: {fileID: 0}
  - target: {fileID: 0}
    propertyPath: m_PlatformSettingOverrides.Array.data[0].first
    value: 7
    objectReference: {fileID: 0}
  - target: {fileID: 0}
    propertyPath: m_PlatformSettingOverrides.Array.data[0].second.loadType
    value: 1
    objectReference: {fileID: 0}
  - target: {fileID: 0}
    propertyPath: m_PlatformSettingOverrides.Array.data[0].second.sampleRateSetting
    value: 0
    objectReference: {fileID: 0}
  - target: {fileID: 0}
    propertyPath: m_PlatformSettingOverrides.Array.data[0].second.sampleRateOverride
    value: 0
    objectReference: {fileID: 0}
  - target: {fileID: 0}
    propertyPath: m_PlatformSettingOverrides.Array.data[0].second.compressionFormat
    value: 1
    objectReference: {fileID: 0}
  - target: {fileID: 0}
    propertyPath: m_PlatformSettingOverrides.Array.data[0].second.quality
    value: 0.7
    objectReference: {fileID: 0}
  - target: {fileID: 0}
    propertyPath: m_PlatformSettingOverrides.Array.data[0].second.conversionMode
    value: 0
    objectReference: {fileID: 0}
  - target: {fileID: 0}
    propertyPath: m_PlatformSettingOverrides.Array.data[0].second.preloadAudioData
    value: 1
    objectReference: {fileID: 0}
  - target: {fileID: 0}
    propertyPath: m_ForceToMono
    value: 1
    objectReference: {fileID: 0}
  - target: {fileID: 0}
    propertyPath: m_Normalize
    value: 1
    objectReference: {fileID: 0}
  - target: {fileID: 0}
    propertyPath: m_LoadInBackground
    value: 0
    objectReference: {fileID: 0}
  - target: {fileID: 0}
    propertyPath: m_Ambisonic
    value: 0
    objectReference: {fileID: 0}
  - target: {fileID: 0}
    propertyPath: m_3D
    value: 0
    objectReference: {fileID: 0}
  - target: {fileID: 0}
    propertyPath: m_UserData
    value: 
    objectReference: {fileID: 0}
  - target: {fileID: 0}
    propertyPath: m_AssetBundleName
    value: 
    objectReference: {fileID: 0}
  - target: {fileID: 0}
    propertyPath: m_AssetBundleVariant
    value: 
    objectReference: {fileID: 0}
  m_ExcludedProperties: []
