%YAML 1.1
%TAG !u! tag:unity3d.com,2011:
--- !u!181963792 &2655988077585873504
Preset:
  m_ObjectHideFlags: 0
  m_CorrespondingSourceObject: {fileID: 0}
  m_PrefabInstance: {fileID: 0}
  m_PrefabAsset: {fileID: 0}
  m_Name: SpriteAtlasPreset
  m_TargetType:
    m_NativeTypeID: 687078895
    m_ManagedTypePPtr: {fileID: 0}
    m_ManagedTypeFallback: 
  m_Properties:
  - target: {fileID: 0}
    propertyPath: m_EditorData.textureSettings.anisoLevel
    value: 1
    objectReference: {fileID: 0}
  - target: {fileID: 0}
    propertyPath: m_EditorData.textureSettings.compressionQuality
    value: 50
    objectReference: {fileID: 0}
  - target: {fileID: 0}
    propertyPath: m_EditorData.textureSettings.maxTextureSize
    value: 2048
    objectReference: {fileID: 0}
  - target: {fileID: 0}
    propertyPath: m_EditorData.textureSettings.textureCompression
    value: 0
    objectReference: {fileID: 0}
  - target: {fileID: 0}
    propertyPath: m_EditorData.textureSettings.filterMode
    value: 1
    objectReference: {fileID: 0}
  - target: {fileID: 0}
    propertyPath: m_EditorData.textureSettings.generateMipMaps
    value: 0
    objectReference: {fileID: 0}
  - target: {fileID: 0}
    propertyPath: m_EditorData.textureSettings.readable
    value: 0
    objectReference: {fileID: 0}
  - target: {fileID: 0}
    propertyPath: m_EditorData.textureSettings.crunchedCompression
    value: 0
    objectReference: {fileID: 0}
  - target: {fileID: 0}
    propertyPath: m_EditorData.textureSettings.sRGB
    value: 1
    objectReference: {fileID: 0}
  - target: {fileID: 0}
    propertyPath: m_EditorData.platformSettings.Array.size
    value: 1
    objectReference: {fileID: 0}
  - target: {fileID: 0}
    propertyPath: m_EditorData.platformSettings.Array.data[0].m_BuildTarget
    value: Android
    objectReference: {fileID: 0}
  - target: {fileID: 0}
    propertyPath: m_EditorData.platformSettings.Array.data[0].m_MaxTextureSize
    value: 2048
    objectReference: {fileID: 0}
  - target: {fileID: 0}
    propertyPath: m_EditorData.platformSettings.Array.data[0].m_ResizeAlgorithm
    value: 0
    objectReference: {fileID: 0}
  - target: {fileID: 0}
    propertyPath: m_EditorData.platformSettings.Array.data[0].m_TextureFormat
    value: 50
    objectReference: {fileID: 0}
  - target: {fileID: 0}
    propertyPath: m_EditorData.platformSettings.Array.data[0].m_TextureCompression
    value: 1
    objectReference: {fileID: 0}
  - target: {fileID: 0}
    propertyPath: m_EditorData.platformSettings.Array.data[0].m_CompressionQuality
    value: 100
    objectReference: {fileID: 0}
  - target: {fileID: 0}
    propertyPath: m_EditorData.platformSettings.Array.data[0].m_CrunchedCompression
    value: 0
    objectReference: {fileID: 0}
  - target: {fileID: 0}
    propertyPath: m_EditorData.platformSettings.Array.data[0].m_AllowsAlphaSplitting
    value: 0
    objectReference: {fileID: 0}
  - target: {fileID: 0}
    propertyPath: m_EditorData.platformSettings.Array.data[0].m_Overridden
    value: 1
    objectReference: {fileID: 0}
  - target: {fileID: 0}
    propertyPath: m_EditorData.platformSettings.Array.data[0].m_IgnorePlatformSupport
    value: 0
    objectReference: {fileID: 0}
  - target: {fileID: 0}
    propertyPath: m_EditorData.platformSettings.Array.data[0].m_AndroidETC2FallbackOverride
    value: 0
    objectReference: {fileID: 0}
  - target: {fileID: 0}
    propertyPath: m_EditorData.platformSettings.Array.data[0].m_ForceMaximumCompressionQuality_BC6H_BC7
    value: 0
    objectReference: {fileID: 0}
  - target: {fileID: 0}
    propertyPath: m_EditorData.packingSettings.padding
    value: 8
    objectReference: {fileID: 0}
  - target: {fileID: 0}
    propertyPath: m_EditorData.packingSettings.blockOffset
    value: 1
    objectReference: {fileID: 0}
  - target: {fileID: 0}
    propertyPath: m_EditorData.packingSettings.allowAlphaSplitting
    value: 0
    objectReference: {fileID: 0}
  - target: {fileID: 0}
    propertyPath: m_EditorData.packingSettings.enableRotation
    value: 0
    objectReference: {fileID: 0}
  - target: {fileID: 0}
    propertyPath: m_EditorData.packingSettings.enableTightPacking
    value: 0
    objectReference: {fileID: 0}
  - target: {fileID: 0}
    propertyPath: m_EditorData.packingSettings.enableAlphaDilation
    value: 0
    objectReference: {fileID: 0}
  - target: {fileID: 0}
    propertyPath: m_EditorData.secondaryTextureSettings.Array.size
    value: 0
    objectReference: {fileID: 0}
  - target: {fileID: 0}
    propertyPath: m_EditorData.variantMultiplier
    value: 1
    objectReference: {fileID: 0}
  - target: {fileID: 0}
    propertyPath: m_EditorData.packables.Array.size
    value: 0
    objectReference: {fileID: 0}
  - target: {fileID: 0}
    propertyPath: m_EditorData.bindAsDefault
    value: 1
    objectReference: {fileID: 0}
  - target: {fileID: 0}
    propertyPath: m_EditorData.isAtlasV2
    value: 0
    objectReference: {fileID: 0}
  - target: {fileID: 0}
    propertyPath: m_EditorData.cachedData
    value: 
    objectReference: {fileID: 0}
  - target: {fileID: 0}
    propertyPath: m_EditorData.packedSpriteRenderDataKeys.Array.size
    value: 0
    objectReference: {fileID: 0}
  - target: {fileID: 0}
    propertyPath: m_MasterAtlas
    value: 
    objectReference: {fileID: 0}
  - target: {fileID: 0}
    propertyPath: m_PackedSprites.Array.size
    value: 0
    objectReference: {fileID: 0}
  - target: {fileID: 0}
    propertyPath: m_PackedSpriteNamesToIndex.Array.size
    value: 0
    objectReference: {fileID: 0}
  - target: {fileID: 0}
    propertyPath: m_RenderDataMap.Array.size
    value: 0
    objectReference: {fileID: 0}
  - target: {fileID: 0}
    propertyPath: m_Tag
    value: SpriteAtlas
    objectReference: {fileID: 0}
  - target: {fileID: 0}
    propertyPath: m_IsVariant
    value: 0
    objectReference: {fileID: 0}
  m_ExcludedProperties: []
