%YAML 1.1
%TAG !u! tag:unity3d.com,2011:
--- !u!114 &11400000
MonoBehaviour:
  m_ObjectHideFlags: 0
  m_CorrespondingSourceObject: {fileID: 0}
  m_PrefabInstance: {fileID: 0}
  m_PrefabAsset: {fileID: 0}
  m_GameObject: {fileID: 0}
  m_Enabled: 1
  m_EditorHideFlags: 0
  m_Script: {fileID: 11500000, guid: bbb281ee3bf0b054c82ac2347e9e782c, type: 3}
  m_Name: Default Local Group
  m_EditorClassIdentifier: 
  m_GroupName: Default Local Group
  m_Data:
    m_SerializedData: []
  m_GUID: 2daab7e57ace6f641aed8cc561fb2883
  m_SerializeEntries:
  - m_GUID: 38452b0eb1b1d8345b48478eef2a18d1
    m_Address: SelectLevelPanel
    m_ReadOnly: 0
    m_SerializedLabels: []
    FlaggedDuringContentUpdateRestriction: 0
  - m_GUID: 0916b04bab7501b4cb392b35136e8adc
    m_Address: PlayPanel
    m_ReadOnly: 0
    m_SerializedLabels: []
    FlaggedDuringContentUpdateRestriction: 0
  - m_GUID: c1ea56206bd5cfb4ea79d8a727cbced5
    m_Address: PausePanel
    m_ReadOnly: 0
    m_SerializedLabels: []
    FlaggedDuringContentUpdateRestriction: 0
  - m_GUID: 0e37f3d99476f514baa9dc7df36841b7
    m_Address: HomePanel
    m_ReadOnly: 0
    m_SerializedLabels: []
    FlaggedDuringContentUpdateRestriction: 0
  - m_GUID: 1101d1615406b6f4e87e55f1c750c76f
    m_Address: SettingsPanel
    m_ReadOnly: 0
    m_SerializedLabels: []
    FlaggedDuringContentUpdateRestriction: 0
  - m_GUID: 8532976fe8b1026419aeb4446e7bfdf9
    m_Address: Level1
    m_ReadOnly: 0
    m_SerializedLabels: []
    FlaggedDuringContentUpdateRestriction: 0
  - m_GUID: 6b38d768765c0fd45b575b223ce558b6
    m_Address: WinPanel
    m_ReadOnly: 0
    m_SerializedLabels: []
    FlaggedDuringContentUpdateRestriction: 0
  - m_GUID: c6a44cb0413150a48a13380551b648c2
    m_Address: EndGamePanel
    m_ReadOnly: 0
    m_SerializedLabels: []
    FlaggedDuringContentUpdateRestriction: 0
  - m_GUID: be0bad620f655704baaa40fccf4f300d
    m_Address: Level2
    m_ReadOnly: 0
    m_SerializedLabels: []
    FlaggedDuringContentUpdateRestriction: 0
  - m_GUID: 83c9937148966014e94203e1a219bc3e
    m_Address: MessagePanel
    m_ReadOnly: 0
    m_SerializedLabels: []
    FlaggedDuringContentUpdateRestriction: 0
  - m_GUID: dcddd05d16f80964b83b1a2df315b2e8
    m_Address: Level3
    m_ReadOnly: 0
    m_SerializedLabels: []
    FlaggedDuringContentUpdateRestriction: 0
  m_ReadOnly: 0
  m_Settings: {fileID: 11400000, guid: 126d536744711e44cbe47308c03dd17b, type: 2}
  m_SchemaSet:
    m_Schemas:
    - {fileID: 11400000, guid: a71a7db6603a81a419ce3a1931bccb0b, type: 2}
    - {fileID: 11400000, guid: c22a89a23270eda4fb52232b424f57e3, type: 2}
