%YAML 1.1
%TAG !u! tag:unity3d.com,2011:
--- !u!114 &11400000
MonoBehaviour:
  m_ObjectHideFlags: 0
  m_CorrespondingSourceObject: {fileID: 0}
  m_PrefabInstance: {fileID: 0}
  m_PrefabAsset: {fileID: 0}
  m_GameObject: {fileID: 0}
  m_Enabled: 1
  m_EditorHideFlags: 0
  m_Script: {fileID: 11500000, guid: a9fa5327e56f3bf41b3571d8f0f40f96, type: 3}
  m_Name: GameDataSO
  m_EditorClassIdentifier: 
  skinDataSet:
  - id: 1
    name: Basic
    price: 0
    preview: {fileID: 21300000, guid: 53f47bf9326912845913f455e0ab6f93, type: 3}
  - id: 2
    name: Country
    price: 100
    preview: {fileID: 21300000, guid: 31e1d3f2bbde061438246b0c96e0f0e8, type: 3}
  - id: 3
    name: Emoji
    price: 200
    preview: {fileID: 21300000, guid: 229d692addbeb9c4babb2ff80d243642, type: 3}
  - id: 4
    name: Fruit
    price: 300
    preview: {fileID: 21300000, guid: fb652bdb8523ec643b0d3fd8d5dc0342, type: 3}
  - id: 5
    name: Planet
    price: 400
    preview: {fileID: 21300000, guid: d6153fbd3802ee541811a57f7804b8e2, type: 3}
